<svg xmlns="http://www.w3.org/2000/svg" xmlns:xlink="http://www.w3.org/1999/xlink" width="12.144" height="19.667" viewBox="0 0 12.144 19.667">
  <defs>
    <linearGradient id="linear-gradient" x1="0.5" x2="0.5" y2="1" gradientUnits="objectBoundingBox">
      <stop offset="0" stop-color="#8e8fee"/>
      <stop offset="1" stop-color="#6868e4"/>
    </linearGradient>
  </defs>
  <path id="ic_navigate_next_24px" d="M10.9,6,8.59,8.311,16.1,15.833,8.59,23.356,10.9,25.667l9.833-9.833Z" transform="translate(-8.59 -6)" fill="url(#linear-gradient)"/>
</svg>
