<svg xmlns="http://www.w3.org/2000/svg" xmlns:xlink="http://www.w3.org/1999/xlink" width="88" height="88" viewBox="0 0 88 88">
  <defs>
    <filter id="Path_32455" x="41.035" y="33.793" width="46.965" height="54.207" filterUnits="userSpaceOnUse">
      <feOffset dy="3" input="SourceAlpha"/>
      <feGaussianBlur stdDeviation="3" result="blur"/>
      <feFlood flood-opacity="0.161"/>
      <feComposite operator="in" in2="blur"/>
      <feComposite in="SourceGraphic"/>
    </filter>
    <linearGradient id="linear-gradient" x1="0.5" x2="0.5" y2="1" gradientUnits="objectBoundingBox">
      <stop offset="0" stop-color="#f5d494"/>
      <stop offset="1" stop-color="#ef9857"/>
    </linearGradient>
    <filter id="Path_32456" x="12.069" y="41.034" width="54.207" height="46.966" filterUnits="userSpaceOnUse">
      <feOffset dy="3" input="SourceAlpha"/>
      <feGaussianBlur stdDeviation="3" result="blur-2"/>
      <feFlood flood-opacity="0.161"/>
      <feComposite operator="in" in2="blur-2"/>
      <feComposite in="SourceGraphic"/>
    </filter>
    <filter id="Path_32457" x="41.035" y="12.069" width="46.965" height="46.965" filterUnits="userSpaceOnUse">
      <feOffset dy="3" input="SourceAlpha"/>
      <feGaussianBlur stdDeviation="3" result="blur-3"/>
      <feFlood flood-opacity="0.161"/>
      <feComposite operator="in" in2="blur-3"/>
      <feComposite in="SourceGraphic"/>
    </filter>
    <filter id="Path_32458" x="0" y="0" width="54.207" height="54.207" filterUnits="userSpaceOnUse">
      <feOffset dy="3" input="SourceAlpha"/>
      <feGaussianBlur stdDeviation="3" result="blur-4"/>
      <feFlood flood-opacity="0.161"/>
      <feComposite operator="in" in2="blur-4"/>
      <feComposite in="SourceGraphic"/>
    </filter>
  </defs>
  <g id="fit" transform="translate(9 6)">
    <g transform="matrix(1, 0, 0, 1, -9, -6)" filter="url(#Path_32455)">
      <path id="Path_32455-2" data-name="Path 32455" d="M329.105,283.38V254.414H318.243l.506-1.517a4.344,4.344,0,0,0-4.126-5.724h0A4.346,4.346,0,0,0,310.5,252.9l.506,1.517H300.14v10.862l1.517-.506a4.344,4.344,0,0,1,5.724,4.126h0a4.345,4.345,0,0,1-5.724,4.126l-1.517-.506V283.38Z" transform="translate(-250.11 -207.38)" fill="#fff"/>
    </g>
    <g transform="matrix(1, 0, 0, 1, -9, -6)" filter="url(#Path_32456)">
      <path id="Path_32456-2" data-name="Path 32456" d="M117.241,300.138V311l1.517-.506a4.344,4.344,0,0,1,5.724,4.126h0a4.346,4.346,0,0,1-5.724,4.126l-1.517-.506V329.1H88.276V300.138H99.138l-.506,1.517a4.344,4.344,0,0,0,4.126,5.724h0a4.346,4.346,0,0,0,4.126-5.724l-.506-1.517h10.862Z" transform="translate(-67.21 -253.1)" fill="url(#linear-gradient)"/>
    </g>
    <g transform="matrix(1, 0, 0, 1, -9, -6)" filter="url(#Path_32457)">
      <path id="Path_32457-2" data-name="Path 32457" d="M329.105,117.241H318.243l.506-1.517A4.344,4.344,0,0,0,314.623,110h0a4.346,4.346,0,0,0-4.126,5.724l.506,1.517H300.14V106.379l1.517.506a4.344,4.344,0,0,0,5.724-4.126h0a4.346,4.346,0,0,0-5.724-4.126l-1.517.506V88.276h28.965Z" transform="translate(-250.11 -70.21)" fill="url(#linear-gradient)"/>
    </g>
    <g transform="matrix(1, 0, 0, 1, -9, -6)" filter="url(#Path_32458)">
      <path id="Path_32458-2" data-name="Path 32458" d="M0,0V28.965H10.862l-.506,1.517a4.344,4.344,0,0,0,4.126,5.724h0a4.346,4.346,0,0,0,4.126-5.724L18.1,28.965H28.965V18.1l1.517.506a4.344,4.344,0,0,0,5.724-4.126h0a4.346,4.346,0,0,0-5.724-4.126l-1.517.506V0Z" transform="translate(9 6)" fill="#fff"/>
    </g>
    <path id="Path_32459" data-name="Path 32459" d="M300.138,432.986l.483-.273-.483-.162Z" transform="translate(-259.104 -373.414)" fill="#91cece"/>
  </g>
</svg>
